…
# ligand_target_matrix of mouse defined by NicheNet

# potential_ligands expressed by VAMs & intersect NicheNet ligand-receptor matrix database

ligand_activities = predict_ligand_activities(geneset = geneset_oi, background_expressed_genes = background_expressed_genes, ligand_target_matrix = ligand_target_matrix, potential_ligands = potential_ligands)
```

Now, we want to rank the ligands based on their ligand activity. In the NicheNet validation study, they showed that the area under the precision-recall curve (AUPR) between a ligand’s target predictions and the observed transcriptional response was the most informative measure to define ligand activity (this was the Pearson correlation for v1). Therefore, we will rank the ligands based on their AUPR. This allows us to prioritize adipogenesis-regulating ligands.

```{r}
ligand_activities %>% arrange(-aupr_corrected) 
# # A tibble: 227 × 5
#    test_ligand auroc  aupr aupr_corrected pearson
#    <chr>       <dbl> <dbl>          <dbl>   <dbl>
#  1 Tgfb1       0.635 0.269         0.110   0.202 
#  2 Tnf         0.587 0.230         0.0711  0.134 
#  3 Bmp2        0.576 0.227         0.0685  0.125 
#  4 Ang         0.590 0.226         0.0665  0.102 
#  5 Angptl3     0.586 0.221         0.0620  0.114 
#  6 Zdhhc5      0.581 0.219         0.0602  0.0995
#  7 Ccl12       0.553 0.217         0.0581  0.0850
#  8 Lama4       0.578 0.217         0.0581  0.101 
#  9 Angptl4     0.562 0.217         0.0576  0.104 
# 10 Ifitm6      0.573 0.216         0.0572  0.101 
# # ℹ 217 more rows
…
